{
  "user": [
    {
      "id": "1",
	  "userName": "Joshua",
      "firstName": "Joshua",
      "lastName": "Lee",
      "password": "/EA7ZxkJSzAcJPNXtc9kTQ==",
      "accessLevel": "superadmin"
    },
    {
      "id": "2",
	  "userName": "Sigit",
      "firstName": "Sigit",
      "lastName": "Sudwikatmono",
      "password": "52kw7NAq7NgdNxQeyH470w==",
      "accessLevel": "admin"
    },
    {
      "id": "3",
	  "userName": "Ferdian",
      "firstName": "Ferdian",
      "lastName": "Thalim",
      "password": "+1AZAwM5zHoPtsMhs5Ss2Q==",
      "accessLevel": "admin"
    },
    {
      "id": "4",
	  "userName": "Shanty.Rahayu",
      "firstName": "Shanty",
      "lastName": "Rahayu",
      "password": "uWIGrtOK24zPBYnqbHbEHg==",
      "accessLevel": "normal"
    }
  ]
}